한국 R 사용자회 – index
…
65 = 65 or older

성별

males (m)

females (f)

사례 - Messy 데이터

library(tidyverse)
tidyr::who 

# A tibble: 7,240 × 60
   country  iso2  iso3   year new_sp_m014 new_sp_m1524 new_sp_m2534 new_sp_m3544
   <chr>    <chr> <chr> <dbl>       <dbl>        <dbl>        <dbl>        <dbl>
 1 Afghani… AF    AFG    1980          NA           NA           NA           NA
 2 Afghani… AF    AFG    1981          NA           NA           NA           NA
 3 Afghani… AF    AFG    1982          NA           NA           NA           NA
 4 Afghani… AF    AFG    1983          NA           NA           NA           NA
 5 Afghani… AF    AFG    1984          NA           NA           NA           NA
 6 Afghani… AF    AFG    1985          NA           NA           NA           NA
 7 Afghani… AF    AFG    1986          NA           NA           NA           NA
 8 Afghani… AF    AFG    1987          NA           NA           NA           NA
 9 Afghani… AF    AFG    1988          NA           NA           NA           NA
10 Afghani… AF    AFG    1989          NA           NA           NA           NA
# ℹ 7,230 more rows
# ℹ 52 more variables: new_sp_m4554 <dbl>, new_sp_m5564 <dbl>,
#   new_sp_m65 <dbl>, new_sp_f014 <dbl>, new_sp_f1524 <dbl>,
#   new_sp_f2534 <dbl>, new_sp_f3544 <dbl>, new_sp_f4554 <dbl>,
#   new_sp_f5564 <dbl>, new_sp_f65 <dbl>, new_sn_m014 <dbl>,
#   new_sn_m1524 <dbl>, new_sn_m2534 <dbl>, new_sn_m3544 <dbl>,
#   new_sn_m4554 <dbl>, new_sn_m5564 <dbl>, new_sn_m65 <dbl>, …
…
사례 - Tidy 데이터

# A tibble: 76,046 × 6
   country      year var   sex   age   cases
   <chr>       <dbl> <chr> <chr> <chr> <dbl>
 1 Afghanistan  1997 sp    m     014       0
 2 Afghanistan  1997 sp    m     1524     10
 3 Afghanistan  1997 sp    m     2534      6
 4 Afghanistan  1997 sp    m     3544      3
 5 Afghanistan  1997 sp    m     4554      5
 6 Afghanistan  1997 sp    m     5564      2
 7 Afghanistan  1997 sp    m     65        0
 8 Afghanistan  1997 sp    f     014       5
 9 Afghanistan  1997 sp    f     1524     38
10 Afghanistan  1997 sp    f     2534     36
# ℹ 76,036 more rows
…
